-- Merging decision tree log ---
manifest
ADDED from C:\Users\UUZRT\nsc\TestAR\build_android\TestAR\src\main\AndroidManifest.xml:2:1-26:12
INJECTED from C:\Users\UUZRT\nsc\TestAR\build_android\TestAR\src\main\AndroidManifest.xml:2:1-26:12
INJECTED from C:\Users\UUZRT\nsc\TestAR\build_android\TestAR\src\main\AndroidManifest.xml:2:1-26:12
INJECTED from C:\Users\UUZRT\nsc\TestAR\build_android\TestAR\src\main\AndroidManifest.xml:2:1-26:12
MERGED from [:UnityAds:] C:\Users\UUZRT\.gradle\caches\transforms-1\files-1.1\UnityAds.aar\3f82092114fbe5ad6c1df439c2365aab\AndroidManifest.xml:2:1-37:12
MERGED from [:VuforiaWrapper:] C:\Users\UUZRT\.gradle\caches\transforms-1\files-1.1\VuforiaWrapper.aar\7ac0ea943fc94b4fb5cbe4f8d6a9dccc\AndroidManifest.xml:2:1-32:12
INJECTED from C:\Users\UUZRT\nsc\TestAR\build_android\TestAR\src\main\AndroidManifest.xml:2:1-26:12
INJECTED from C:\Users\UUZRT\nsc\TestAR\build_android\TestAR\src\main\AndroidManifest.xml:2:1-26:12
INJECTED from C:\Users\UUZRT\nsc\TestAR\build_android\TestAR\src\main\AndroidManifest.xml:2:1-26:12
	package
		ADDED from C:\Users\UUZRT\nsc\TestAR\build_android\TestAR\src\main\AndroidManifest.xml:2:70-98
		INJECTED from C:\Users\UUZRT\nsc\TestAR\build_android\TestAR\src\main\AndroidManifest.xml
		INJECTED from C:\Users\UUZRT\nsc\TestAR\build_android\TestAR\src\main\AndroidManifest.xml
	android:versionName
		INJECTED from C:\Users\UUZRT\nsc\TestAR\build_android\TestAR\src\main\AndroidManifest.xml
		ADDED from C:\Users\UUZRT\nsc\TestAR\build_android\TestAR\src\main\AndroidManifest.xml:2:1-26:12
		INJECTED from C:\Users\UUZRT\nsc\TestAR\build_android\TestAR\src\main\AndroidManifest.xml
	xmlns:tools
		ADDED from C:\Users\UUZRT\nsc\TestAR\build_android\TestAR\src\main\AndroidManifest.xml:2:99-145
	android:versionCode
		INJECTED from C:\Users\UUZRT\nsc\TestAR\build_android\TestAR\src\main\AndroidManifest.xml
		ADDED from C:\Users\UUZRT\nsc\TestAR\build_android\TestAR\src\main\AndroidManifest.xml:2:1-26:12
		INJECTED from C:\Users\UUZRT\nsc\TestAR\build_android\TestAR\src\main\AndroidManifest.xml
	xmlns:android
		ADDED from C:\Users\UUZRT\nsc\TestAR\build_android\TestAR\src\main\AndroidManifest.xml:2:11-69
	android:installLocation
		ADDED from C:\Users\UUZRT\nsc\TestAR\build_android\TestAR\src\main\AndroidManifest.xml:2:146-186
supports-screens
ADDED from C:\Users\UUZRT\nsc\TestAR\build_android\TestAR\src\main\AndroidManifest.xml:3:3-163
	android:largeScreens
		ADDED from C:\Users\UUZRT\nsc\TestAR\build_android\TestAR\src\main\AndroidManifest.xml:3:78-105
	android:smallScreens
		ADDED from C:\Users\UUZRT\nsc\TestAR\build_android\TestAR\src\main\AndroidManifest.xml:3:21-48
	android:normalScreens
		ADDED from C:\Users\UUZRT\nsc\TestAR\build_android\TestAR\src\main\AndroidManifest.xml:3:49-77
	android:xlargeScreens
		ADDED from C:\Users\UUZRT\nsc\TestAR\build_android\TestAR\src\main\AndroidManifest.xml:3:106-134
	android:anyDensity
		ADDED from C:\Users\UUZRT\nsc\TestAR\build_android\TestAR\src\main\AndroidManifest.xml:3:135-160
application
ADDED from C:\Users\UUZRT\nsc\TestAR\build_android\TestAR\src\main\AndroidManifest.xml:4:3-16:17
MERGED from [:UnityAds:] C:\Users\UUZRT\.gradle\caches\transforms-1\files-1.1\UnityAds.aar\3f82092114fbe5ad6c1df439c2365aab\AndroidManifest.xml:14:5-35:19
MERGED from [:UnityAds:] C:\Users\UUZRT\.gradle\caches\transforms-1\files-1.1\UnityAds.aar\3f82092114fbe5ad6c1df439c2365aab\AndroidManifest.xml:14:5-35:19
MERGED from [:VuforiaWrapper:] C:\Users\UUZRT\.gradle\caches\transforms-1\files-1.1\VuforiaWrapper.aar\7ac0ea943fc94b4fb5cbe4f8d6a9dccc\AndroidManifest.xml:19:5-30:19
MERGED from [:VuforiaWrapper:] C:\Users\UUZRT\.gradle\caches\transforms-1\files-1.1\VuforiaWrapper.aar\7ac0ea943fc94b4fb5cbe4f8d6a9dccc\AndroidManifest.xml:19:5-30:19
	android:label
		ADDED from C:\Users\UUZRT\nsc\TestAR\build_android\TestAR\src\main\AndroidManifest.xml:4:90-122
	android:debuggable
		ADDED from [:VuforiaWrapper:] C:\Users\UUZRT\.gradle\caches\transforms-1\files-1.1\VuforiaWrapper.aar\7ac0ea943fc94b4fb5cbe4f8d6a9dccc\AndroidManifest.xml:19:18-44
	android:icon
		ADDED from C:\Users\UUZRT\nsc\TestAR\build_android\TestAR\src\main\AndroidManifest.xml:4:58-89
	android:banner
		ADDED from C:\Users\UUZRT\nsc\TestAR\build_android\TestAR\src\main\AndroidManifest.xml:4:145-182
	android:theme
		ADDED from C:\Users\UUZRT\nsc\TestAR\build_android\TestAR\src\main\AndroidManifest.xml:4:16-57
	android:isGame
		ADDED from C:\Users\UUZRT\nsc\TestAR\build_android\TestAR\src\main\AndroidManifest.xml:4:123-144
activity#com.example.TestAR.UnityPlayerActivity
ADDED from C:\Users\UUZRT\nsc\TestAR\build_android\TestAR\src\main\AndroidManifest.xml:5:5-12:16
	android:screenOrientation
		ADDED from C:\Users\UUZRT\nsc\TestAR\build_android\TestAR\src\main\AndroidManifest.xml:5:48-86
	android:label
		ADDED from C:\Users\UUZRT\nsc\TestAR\build_android\TestAR\src\main\AndroidManifest.xml:5:15-47
	android:launchMode
		ADDED from C:\Users\UUZRT\nsc\TestAR\build_android\TestAR\src\main\AndroidManifest.xml:5:87-118
	android:hardwareAccelerated
		ADDED from C:\Users\UUZRT\nsc\TestAR\build_android\TestAR\src\main\AndroidManifest.xml:5:301-336
	android:configChanges
		ADDED from C:\Users\UUZRT\nsc\TestAR\build_android\TestAR\src\main\AndroidManifest.xml:5:119-300
	android:name
		ADDED from C:\Users\UUZRT\nsc\TestAR\build_android\TestAR\src\main\AndroidManifest.xml:5:337-390
intent-filter#action:name:android.intent.action.MAIN+category:name:android.intent.category.LAUNCHER+category:name:android.intent.category.LEANBACK_LAUNCHER
ADDED from C:\Users\UUZRT\nsc\TestAR\build_android\TestAR\src\main\AndroidManifest.xml:6:7-10:23
action#android.intent.action.MAIN
ADDED from C:\Users\UUZRT\nsc\TestAR\build_android\TestAR\src\main\AndroidManifest.xml:7:9-61
	android:name
		ADDED from C:\Users\UUZRT\nsc\TestAR\build_android\TestAR\src\main\AndroidManifest.xml:7:17-58
category#android.intent.category.LAUNCHER
ADDED from C:\Users\UUZRT\nsc\TestAR\build_android\TestAR\src\main\AndroidManifest.xml:8:9-69
	android:name
		ADDED from C:\Users\UUZRT\nsc\TestAR\build_android\TestAR\src\main\AndroidManifest.xml:8:19-66
category#android.intent.category.LEANBACK_LAUNCHER
ADDED from C:\Users\UUZRT\nsc\TestAR\build_android\TestAR\src\main\AndroidManifest.xml:9:9-78
	android:name
		ADDED from C:\Users\UUZRT\nsc\TestAR\build_android\TestAR\src\main\AndroidManifest.xml:9:19-75
meta-data#unityplayer.UnityActivity
ADDED from C:\Users\UUZRT\nsc\TestAR\build_android\TestAR\src\main\AndroidManifest.xml:11:7-82
	android:value
		ADDED from C:\Users\UUZRT\nsc\TestAR\build_android\TestAR\src\main\AndroidManifest.xml:11:59-79
	android:name
		ADDED from C:\Users\UUZRT\nsc\TestAR\build_android\TestAR\src\main\AndroidManifest.xml:11:18-58
meta-data#unity.build-id
ADDED from C:\Users\UUZRT\nsc\TestAR\build_android\TestAR\src\main\AndroidManifest.xml:13:5-101
	android:value
		ADDED from C:\Users\UUZRT\nsc\TestAR\build_android\TestAR\src\main\AndroidManifest.xml:13:46-98
	android:name
		ADDED from C:\Users\UUZRT\nsc\TestAR\build_android\TestAR\src\main\AndroidManifest.xml:13:16-45
meta-data#unity.splash-mode
ADDED from C:\Users\UUZRT\nsc\TestAR\build_android\TestAR\src\main\AndroidManifest.xml:14:5-69
	android:value
		ADDED from C:\Users\UUZRT\nsc\TestAR\build_android\TestAR\src\main\AndroidManifest.xml:14:49-66
	android:name
		ADDED from C:\Users\UUZRT\nsc\TestAR\build_android\TestAR\src\main\AndroidManifest.xml:14:16-48
meta-data#unity.splash-enable
ADDED from C:\Users\UUZRT\nsc\TestAR\build_android\TestAR\src\main\AndroidManifest.xml:15:5-75
	android:value
		ADDED from C:\Users\UUZRT\nsc\TestAR\build_android\TestAR\src\main\AndroidManifest.xml:15:51-72
	android:name
		ADDED from C:\Users\UUZRT\nsc\TestAR\build_android\TestAR\src\main\AndroidManifest.xml:15:16-50
uses-feature#0x00020000
ADDED from C:\Users\UUZRT\nsc\TestAR\build_android\TestAR\src\main\AndroidManifest.xml:17:3-52
	android:glEsVersion
		ADDED from C:\Users\UUZRT\nsc\TestAR\build_android\TestAR\src\main\AndroidManifest.xml:17:17-49
uses-permission#android.permission.INTERNET
ADDED from C:\Users\UUZRT\nsc\TestAR\build_android\TestAR\src\main\AndroidManifest.xml:18:3-65
MERGED from [:UnityAds:] C:\Users\UUZRT\.gradle\caches\transforms-1\files-1.1\UnityAds.aar\3f82092114fbe5ad6c1df439c2365aab\AndroidManifest.xml:12:5-67
MERGED from [:UnityAds:] C:\Users\UUZRT\.gradle\caches\transforms-1\files-1.1\UnityAds.aar\3f82092114fbe5ad6c1df439c2365aab\AndroidManifest.xml:12:5-67
MERGED from [:VuforiaWrapper:] C:\Users\UUZRT\.gradle\caches\transforms-1\files-1.1\VuforiaWrapper.aar\7ac0ea943fc94b4fb5cbe4f8d6a9dccc\AndroidManifest.xml:14:5-67
MERGED from [:VuforiaWrapper:] C:\Users\UUZRT\.gradle\caches\transforms-1\files-1.1\VuforiaWrapper.aar\7ac0ea943fc94b4fb5cbe4f8d6a9dccc\AndroidManifest.xml:14:5-67
	android:name
		ADDED from C:\Users\UUZRT\nsc\TestAR\build_android\TestAR\src\main\AndroidManifest.xml:18:20-62
uses-permission#android.permission.CAMERA
ADDED from C:\Users\UUZRT\nsc\TestAR\build_android\TestAR\src\main\AndroidManifest.xml:19:3-63
MERGED from [:VuforiaWrapper:] C:\Users\UUZRT\.gradle\caches\transforms-1\files-1.1\VuforiaWrapper.aar\7ac0ea943fc94b4fb5cbe4f8d6a9dccc\AndroidManifest.xml:15:5-65
MERGED from [:VuforiaWrapper:] C:\Users\UUZRT\.gradle\caches\transforms-1\files-1.1\VuforiaWrapper.aar\7ac0ea943fc94b4fb5cbe4f8d6a9dccc\AndroidManifest.xml:15:5-65
	android:name
		ADDED from C:\Users\UUZRT\nsc\TestAR\build_android\TestAR\src\main\AndroidManifest.xml:19:20-60
uses-feature#android.hardware.camera
ADDED from C:\Users\UUZRT\nsc\TestAR\build_android\TestAR\src\main\AndroidManifest.xml:20:3-83
MERGED from [:VuforiaWrapper:] C:\Users\UUZRT\.gradle\caches\transforms-1\files-1.1\VuforiaWrapper.aar\7ac0ea943fc94b4fb5cbe4f8d6a9dccc\AndroidManifest.xml:12:5-60
MERGED from [:VuforiaWrapper:] C:\Users\UUZRT\.gradle\caches\transforms-1\files-1.1\VuforiaWrapper.aar\7ac0ea943fc94b4fb5cbe4f8d6a9dccc\AndroidManifest.xml:12:5-60
	android:required
		ADDED from C:\Users\UUZRT\nsc\TestAR\build_android\TestAR\src\main\AndroidManifest.xml:20:56-80
		MERGED from C:\Users\UUZRT\nsc\TestAR\build_android\TestAR\src\main\AndroidManifest.xml:20:56-80
	android:name
		ADDED from C:\Users\UUZRT\nsc\TestAR\build_android\TestAR\src\main\AndroidManifest.xml:20:17-55
uses-feature#android.hardware.camera.autofocus
ADDED from C:\Users\UUZRT\nsc\TestAR\build_android\TestAR\src\main\AndroidManifest.xml:21:3-93
	android:required
		ADDED from C:\Users\UUZRT\nsc\TestAR\build_android\TestAR\src\main\AndroidManifest.xml:21:66-90
	android:name
		ADDED from C:\Users\UUZRT\nsc\TestAR\build_android\TestAR\src\main\AndroidManifest.xml:21:17-65
uses-feature#android.hardware.camera.front
ADDED from C:\Users\UUZRT\nsc\TestAR\build_android\TestAR\src\main\AndroidManifest.xml:22:3-89
	android:required
		ADDED from C:\Users\UUZRT\nsc\TestAR\build_android\TestAR\src\main\AndroidManifest.xml:22:62-86
	android:name
		ADDED from C:\Users\UUZRT\nsc\TestAR\build_android\TestAR\src\main\AndroidManifest.xml:22:17-61
uses-feature#android.hardware.touchscreen
ADDED from C:\Users\UUZRT\nsc\TestAR\build_android\TestAR\src\main\AndroidManifest.xml:23:3-88
	android:required
		ADDED from C:\Users\UUZRT\nsc\TestAR\build_android\TestAR\src\main\AndroidManifest.xml:23:61-85
	android:name
		ADDED from C:\Users\UUZRT\nsc\TestAR\build_android\TestAR\src\main\AndroidManifest.xml:23:17-60
uses-feature#android.hardware.touchscreen.multitouch
ADDED from C:\Users\UUZRT\nsc\TestAR\build_android\TestAR\src\main\AndroidManifest.xml:24:3-99
	android:required
		ADDED from C:\Users\UUZRT\nsc\TestAR\build_android\TestAR\src\main\AndroidManifest.xml:24:72-96
	android:name
		ADDED from C:\Users\UUZRT\nsc\TestAR\build_android\TestAR\src\main\AndroidManifest.xml:24:17-71
uses-feature#android.hardware.touchscreen.multitouch.distinct
ADDED from C:\Users\UUZRT\nsc\TestAR\build_android\TestAR\src\main\AndroidManifest.xml:25:3-108
	android:required
		ADDED from C:\Users\UUZRT\nsc\TestAR\build_android\TestAR\src\main\AndroidManifest.xml:25:81-105
	android:name
		ADDED from C:\Users\UUZRT\nsc\TestAR\build_android\TestAR\src\main\AndroidManifest.xml:25:17-80
uses-sdk
INJECTED from C:\Users\UUZRT\nsc\TestAR\build_android\TestAR\src\main\AndroidManifest.xml reason: use-sdk injection requested
INJECTED from C:\Users\UUZRT\nsc\TestAR\build_android\TestAR\src\main\AndroidManifest.xml
INJECTED from C:\Users\UUZRT\nsc\TestAR\build_android\TestAR\src\main\AndroidManifest.xml
MERGED from [:UnityAds:] C:\Users\UUZRT\.gradle\caches\transforms-1\files-1.1\UnityAds.aar\3f82092114fbe5ad6c1df439c2365aab\AndroidManifest.xml:7:5-9:41
MERGED from [:UnityAds:] C:\Users\UUZRT\.gradle\caches\transforms-1\files-1.1\UnityAds.aar\3f82092114fbe5ad6c1df439c2365aab\AndroidManifest.xml:7:5-9:41
MERGED from [:VuforiaWrapper:] C:\Users\UUZRT\.gradle\caches\transforms-1\files-1.1\VuforiaWrapper.aar\7ac0ea943fc94b4fb5cbe4f8d6a9dccc\AndroidManifest.xml:8:5-10:41
MERGED from [:VuforiaWrapper:] C:\Users\UUZRT\.gradle\caches\transforms-1\files-1.1\VuforiaWrapper.aar\7ac0ea943fc94b4fb5cbe4f8d6a9dccc\AndroidManifest.xml:8:5-10:41
INJECTED from C:\Users\UUZRT\nsc\TestAR\build_android\TestAR\src\main\AndroidManifest.xml
INJECTED from C:\Users\UUZRT\nsc\TestAR\build_android\TestAR\src\main\AndroidManifest.xml
	android:targetSdkVersion
		INJECTED from C:\Users\UUZRT\nsc\TestAR\build_android\TestAR\src\main\AndroidManifest.xml
		ADDED from C:\Users\UUZRT\nsc\TestAR\build_android\TestAR\src\main\AndroidManifest.xml
		INJECTED from C:\Users\UUZRT\nsc\TestAR\build_android\TestAR\src\main\AndroidManifest.xml
	android:minSdkVersion
		INJECTED from C:\Users\UUZRT\nsc\TestAR\build_android\TestAR\src\main\AndroidManifest.xml
		ADDED from C:\Users\UUZRT\nsc\TestAR\build_android\TestAR\src\main\AndroidManifest.xml
		INJECTED from C:\Users\UUZRT\nsc\TestAR\build_android\TestAR\src\main\AndroidManifest.xml
uses-permission#android.permission.ACCESS_NETWORK_STATE
ADDED from [:UnityAds:] C:\Users\UUZRT\.gradle\caches\transforms-1\files-1.1\UnityAds.aar\3f82092114fbe5ad6c1df439c2365aab\AndroidManifest.xml:11:5-79
MERGED from [:VuforiaWrapper:] C:\Users\UUZRT\.gradle\caches\transforms-1\files-1.1\VuforiaWrapper.aar\7ac0ea943fc94b4fb5cbe4f8d6a9dccc\AndroidManifest.xml:16:5-79
MERGED from [:VuforiaWrapper:] C:\Users\UUZRT\.gradle\caches\transforms-1\files-1.1\VuforiaWrapper.aar\7ac0ea943fc94b4fb5cbe4f8d6a9dccc\AndroidManifest.xml:16:5-79
	android:name
		ADDED from [:UnityAds:] C:\Users\UUZRT\.gradle\caches\transforms-1\files-1.1\UnityAds.aar\3f82092114fbe5ad6c1df439c2365aab\AndroidManifest.xml:11:22-76
activity#com.unity3d.ads.adunit.AdUnitActivity
ADDED from [:UnityAds:] C:\Users\UUZRT\.gradle\caches\transforms-1\files-1.1\UnityAds.aar\3f82092114fbe5ad6c1df439c2365aab\AndroidManifest.xml:15:9-19:74
	android:hardwareAccelerated
		ADDED from [:UnityAds:] C:\Users\UUZRT\.gradle\caches\transforms-1\files-1.1\UnityAds.aar\3f82092114fbe5ad6c1df439c2365aab\AndroidManifest.xml:18:13-47
	android:configChanges
		ADDED from [:UnityAds:] C:\Users\UUZRT\.gradle\caches\transforms-1\files-1.1\UnityAds.aar\3f82092114fbe5ad6c1df439c2365aab\AndroidManifest.xml:17:13-170
	android:theme
		ADDED from [:UnityAds:] C:\Users\UUZRT\.gradle\caches\transforms-1\files-1.1\UnityAds.aar\3f82092114fbe5ad6c1df439c2365aab\AndroidManifest.xml:19:13-71
	android:name
		ADDED from [:UnityAds:] C:\Users\UUZRT\.gradle\caches\transforms-1\files-1.1\UnityAds.aar\3f82092114fbe5ad6c1df439c2365aab\AndroidManifest.xml:16:13-65
activity#com.unity3d.ads.adunit.AdUnitTransparentActivity
ADDED from [:UnityAds:] C:\Users\UUZRT\.gradle\caches\transforms-1\files-1.1\UnityAds.aar\3f82092114fbe5ad6c1df439c2365aab\AndroidManifest.xml:20:9-24:86
	android:hardwareAccelerated
		ADDED from [:UnityAds:] C:\Users\UUZRT\.gradle\caches\transforms-1\files-1.1\UnityAds.aar\3f82092114fbe5ad6c1df439c2365aab\AndroidManifest.xml:23:13-47
	android:configChanges
		ADDED from [:UnityAds:] C:\Users\UUZRT\.gradle\caches\transforms-1\files-1.1\UnityAds.aar\3f82092114fbe5ad6c1df439c2365aab\AndroidManifest.xml:22:13-170
	android:theme
		ADDED from [:UnityAds:] C:\Users\UUZRT\.gradle\caches\transforms-1\files-1.1\UnityAds.aar\3f82092114fbe5ad6c1df439c2365aab\AndroidManifest.xml:24:13-83
	android:name
		ADDED from [:UnityAds:] C:\Users\UUZRT\.gradle\caches\transforms-1\files-1.1\UnityAds.aar\3f82092114fbe5ad6c1df439c2365aab\AndroidManifest.xml:21:13-76
activity#com.unity3d.ads.adunit.AdUnitTransparentSoftwareActivity
ADDED from [:UnityAds:] C:\Users\UUZRT\.gradle\caches\transforms-1\files-1.1\UnityAds.aar\3f82092114fbe5ad6c1df439c2365aab\AndroidManifest.xml:25:9-29:86
	android:hardwareAccelerated
		ADDED from [:UnityAds:] C:\Users\UUZRT\.gradle\caches\transforms-1\files-1.1\UnityAds.aar\3f82092114fbe5ad6c1df439c2365aab\AndroidManifest.xml:28:13-48
	android:configChanges
		ADDED from [:UnityAds:] C:\Users\UUZRT\.gradle\caches\transforms-1\files-1.1\UnityAds.aar\3f82092114fbe5ad6c1df439c2365aab\AndroidManifest.xml:27:13-170
	android:theme
		ADDED from [:UnityAds:] C:\Users\UUZRT\.gradle\caches\transforms-1\files-1.1\UnityAds.aar\3f82092114fbe5ad6c1df439c2365aab\AndroidManifest.xml:29:13-83
	android:name
		ADDED from [:UnityAds:] C:\Users\UUZRT\.gradle\caches\transforms-1\files-1.1\UnityAds.aar\3f82092114fbe5ad6c1df439c2365aab\AndroidManifest.xml:26:13-84
activity#com.unity3d.ads.adunit.AdUnitSoftwareActivity
ADDED from [:UnityAds:] C:\Users\UUZRT\.gradle\caches\transforms-1\files-1.1\UnityAds.aar\3f82092114fbe5ad6c1df439c2365aab\AndroidManifest.xml:30:9-34:74
	android:hardwareAccelerated
		ADDED from [:UnityAds:] C:\Users\UUZRT\.gradle\caches\transforms-1\files-1.1\UnityAds.aar\3f82092114fbe5ad6c1df439c2365aab\AndroidManifest.xml:33:13-48
	android:configChanges
		ADDED from [:UnityAds:] C:\Users\UUZRT\.gradle\caches\transforms-1\files-1.1\UnityAds.aar\3f82092114fbe5ad6c1df439c2365aab\AndroidManifest.xml:32:13-170
	android:theme
		ADDED from [:UnityAds:] C:\Users\UUZRT\.gradle\caches\transforms-1\files-1.1\UnityAds.aar\3f82092114fbe5ad6c1df439c2365aab\AndroidManifest.xml:34:13-71
	android:name
		ADDED from [:UnityAds:] C:\Users\UUZRT\.gradle\caches\transforms-1\files-1.1\UnityAds.aar\3f82092114fbe5ad6c1df439c2365aab\AndroidManifest.xml:31:13-73
uses-permission#android.permission.WRITE_EXTERNAL_STORAGE
ADDED from [:VuforiaWrapper:] C:\Users\UUZRT\.gradle\caches\transforms-1\files-1.1\VuforiaWrapper.aar\7ac0ea943fc94b4fb5cbe4f8d6a9dccc\AndroidManifest.xml:17:5-81
	android:name
		ADDED from [:VuforiaWrapper:] C:\Users\UUZRT\.gradle\caches\transforms-1\files-1.1\VuforiaWrapper.aar\7ac0ea943fc94b4fb5cbe4f8d6a9dccc\AndroidManifest.xml:17:22-78
meta-data#com.google.ar.core
ADDED from [:VuforiaWrapper:] C:\Users\UUZRT\.gradle\caches\transforms-1\files-1.1\VuforiaWrapper.aar\7ac0ea943fc94b4fb5cbe4f8d6a9dccc\AndroidManifest.xml:22:9-24:40
	android:value
		ADDED from [:VuforiaWrapper:] C:\Users\UUZRT\.gradle\caches\transforms-1\files-1.1\VuforiaWrapper.aar\7ac0ea943fc94b4fb5cbe4f8d6a9dccc\AndroidManifest.xml:24:13-37
	android:name
		ADDED from [:VuforiaWrapper:] C:\Users\UUZRT\.gradle\caches\transforms-1\files-1.1\VuforiaWrapper.aar\7ac0ea943fc94b4fb5cbe4f8d6a9dccc\AndroidManifest.xml:23:13-46
uses-library#com.osterhoutgroup.api.ext
ADDED from [:VuforiaWrapper:] C:\Users\UUZRT\.gradle\caches\transforms-1\files-1.1\VuforiaWrapper.aar\7ac0ea943fc94b4fb5cbe4f8d6a9dccc\AndroidManifest.xml:27:9-29:40
	android:required
		ADDED from [:VuforiaWrapper:] C:\Users\UUZRT\.gradle\caches\transforms-1\files-1.1\VuforiaWrapper.aar\7ac0ea943fc94b4fb5cbe4f8d6a9dccc\AndroidManifest.xml:29:13-37
	android:name
		ADDED from [:VuforiaWrapper:] C:\Users\UUZRT\.gradle\caches\transforms-1\files-1.1\VuforiaWrapper.aar\7ac0ea943fc94b4fb5cbe4f8d6a9dccc\AndroidManifest.xml:28:13-54
uses-permission#android.permission.READ_EXTERNAL_STORAGE
IMPLIED from C:\Users\UUZRT\nsc\TestAR\build_android\TestAR\src\main\AndroidManifest.xml:2:1-26:12 reason: com.vuforia.engine.ext requested WRITE_EXTERNAL_STORAGE
